{
    "port": 8080,
    "trustProxy": false,
    "autoBlock": false,
    "queue": {
        "enabled": false,
        "rabbitmq": "amqp://localhost",
        "queue": "webhook-proxy"
    },
    "redis": "redis://zleck98@srv-captain--redis2:6379",
    "abuseThreshold": 12
}

